{
    "bike" : [
        {
            "id": "123",
            "src": "/images/bikes/bike1.webp",
            "title" : "Электровелосипед 29'' Scott PATRON eRIDE 900 Tuned - L 2023 Black/White",
            "color": "#FFFFFF-#000000",
            "price": "406 350"
        },
        {
            "id": "321",
            "src": "/images/bikes/bike2.webp",
            "title" : "Электровелосипед 29'' Scott STRIKE eRIDE 930 (EU) рама - M 2024 Grey",
            "color": "#696969",
            "price": "239 295"
        },
        {
            "id": "456",
            "src": "/images/bikes/bike3.webp",
            "title" : "Електровелосипед 28'' Giant ROAD E+ 2 PRO рама - ML 2021 Cosmos Navy",
            "color": "#0000FF",
            "price": "180 000"
        },
        {
            "id": "654",
            "src": "/images/bikes/bike4.webp",
            "title" : "Електровелосипед 28'' Giant FASTROAD E+ 1 PRO рама - ML 2020 Antracite/Acid Yellow",
            "color": "#696969",
            "price": "160 000"
        },
        {
            "id": "789",
            "src": "/images/bikes/bike5.webp",
            "title" : "Електровелосипед 27.5'' Momentum TRANSEND E+ GTS рама - M 2022 Knight Shield",
            "color": "#696969",
            "price": "146 800"
        },
        {
            "id": "987",
            "src": "/images/bikes/bike6.webp",
            "title" : "Електровелосипед 27.5'' Momentum TRANSEND E+ LDS рама - M 2022",
            "color": "#FF0000",
            "price": "146 800"
        },
        {
            "id": "963",
            "src": "/images/bikes/bike7.webp",
            "title" : "Електровелосипед 29'' SCOTT Aspect eRIDE 930 рама - L 2021 Gray",
            "color": "#696969",
            "price": "142 244"
        },
        {
            "id": "852",
            "src": "/images/bikes/bike8.webp",
            "title" : "Електровелосипед 29'' Giant TALON E+ 3 рама - S 2022 Blue Ashes",
            "color": "#0000FF",
            "price": "124 000"
        },
        {
            "id": "741",
            "src": "/images/bikes/bike9.webp",
            "title" : "Електровелосипед 27.5'' Momentum DELIVERY E+ 2021 OS Black",
            "color": "#000000",
            "price": "120 000"
        },
        {
            "id": "147",
            "src": "/images/bikes/bike10.webp",
            "title" : "Електровелосипед 29'' Cannondale TRAIL Neo 4 рама - M 2023 HLT",
            "color": "#FFFF00",
            "price": "119 680"
        }
    ],
    "controller" : [],
    "accumulator": [],
    "motor": [],
    "accessories": [],
    "elektro-kits": []
}